…
<div class="figure" style="text-align: center">
<img src="images/Datenjudo/group_by.png" alt="Datensätze nach Subgruppen aufteilen" width="70%" />
<p class="caption">(\#fig:fig-groupby)Datensätze nach Subgruppen aufteilen</p>
</div>

In Abbildung \@ref(fig:fig-groupby) wurde der Datensatz anhand der Spalte (d.h. Variable) `Fach` in mehrere Gruppen geteilt (Fach A, Fach B...). Wir könnten uns als nächstes z.B. Mittelwerte pro Fach - d.h. pro Gruppe (pro Ausprägung von `Fach`) - ausgeben lassen; in diesem Fall vier Gruppen (Fach A bis D).


```r
test_gruppiert <- group_by(stats_test, interest)
test_gruppiert
#> Source: local data frame [306 x 7]
#> Groups: interest [7]
#> 
#> # A tibble: 306 x 7
#>    row_number           date_time bestanden study_time self_eval interest
#>         <int>              <fctr>    <fctr>      <int>     <int>    <int>
#>  1          1 05.01.2017 13:57:01        ja          5         8        5
#>  2          2 05.01.2017 21:07:56        ja          3         7        3
#>  3          3 05.01.2017 23:33:47        ja          5        10        6
#>  4          4 06.01.2017 09:58:05      nein          2         3        2
#>  5          5 06.01.2017 14:13:08        ja          4         8        6
#>  6          6 06.01.2017 14:21:18        ja         NA        NA       NA
#>  7          7 06.01.2017 14:25:49        ja         NA        NA       NA
#>  8          8 06.01.2017 17:24:53      nein          2         5        3
#>  9          9 07.01.2017 10:11:17        ja          2         3        5
#> 10         10 07.01.2017 18:10:05        ja          4         5        5
#> # ... with 296 more rows, and 1 more variables: score <int>
```
…
dplyr::count(stats_test, study_time)
#> # A tibble: 6 x 2
#>   study_time     n
#>        <int> <int>
#> 1          1    31
#> 2          2    49
#> 3          3    85
#> 4          4    56
#> 5          5    17
#> 6         NA    68
dplyr::count(stats_test, interest, study_time)
#> Source: local data frame [29 x 3]
#> Groups: interest [?]
#> 
#> # A tibble: 29 x 3
#>    interest study_time     n
#>       <int>      <int> <int>
#>  1        1          1    12
#>  2        1          2     7
#>  3        1          3     8
#>  4        1          4     2
#>  5        1          5     1
#>  6        2          1     9
#>  7        2          2    15
#>  8        2          3    16
#>  9        2          4     6
#> 10        2          5     1
#> # ... with 19 more rows
```
…
