Praxis der Datenanalyse ENTWURF
…
Der Parameter output sagt, wie neue ‘saubere’ Spalte heißen soll; input sagt der Funktion, welche Spalte sie als ihr Futter betrachten soll (welche Spalte in tidy text umgewandelt werden soll).

In einem ‘tidy text Dataframe’ steht in jeder Zeile ein Wort (token) und die Häufigkeit des Worts im Dokument.

Überprüfen Sie, ob das stimmt: Betrachten Sie den Dataframe tidytext_df.

Das unnest_tokens kann übersetzt werden als “entschachtele” oder “dehne” die Tokens - so dass in jeder Zeile nur noch ein Wort (genauer: Token) steht. Die Syntax ist unnest_tokens(Ausgabespalte, Eingabespalte). Nebenbei werden übrigens alle Buchstaben auf Kleinschreibung getrimmt.

Als nächstes filtern wir die Satzzeichen heraus, da die Wörter für die Analyse wichtiger (oder zumindest einfacher) sind.

text_df %>% 
  unnest_tokens(wort, text) %>% 
  filter(str_detect(wort, "[a-z]"))
#> # A tibble: 24 x 2
#>   Zeile  wort
#>   <int> <chr>
#> 1     1   wir
#> 2     1 haben
#> 3     1   die
#> # ... with 21 more rows
…
count(afd_df) 
#> # A tibble: 1 x 1
#>       n
#>   <int>
#> 1 26396

Eine substanzielle Menge von Text. Was wohl die häufigsten Wörter sind?

16.2.3 Worthäufigkeiten auszählen

afd_df %>% 
  na.omit() %>%  # fehlende Werte löschen
  count(token, sort = TRUE)
#> # A tibble: 7,087 x 2
#>   token     n
#>   <chr> <int>
#> 1   die  1151
#> 2   und  1147
#> 3   der   870
#> # ... with 7,084 more rows
…
