…
Einen Datensatz zu gruppieren ist ebenfalls eine häufige Angelegenheit: Was ist der mittlere Umsatz in Region X im Vergleich zu Region Y? Ist die Reaktionszeit in der Experimentalgruppe kleiner als in der Kontrollgruppe? Können Männer schneller ausparken als Frauen? Man sieht, dass das Gruppieren v.a. in Verbindung mit Mittelwerten oder anderen Zusammenfassungen sinnvol ist; dazu im nächsten Abschnitt mehr.

<div class="figure" style="text-align: center">
<img src="images/Datenjudo/group_by.pdf" alt="Datensätze nach Subgruppen aufteilen" width="70%" />
<p class="caption">(\#fig:fig-groupby)Datensätze nach Subgruppen aufteilen</p>
</div>

In der Abbildung wurde der Datensatz anhand der Spalte `Fach` in mehrere Gruppen geteilt. Wir könnten uns als nächstes z.B. Mittelwerte pro Fach - d.h. pro Gruppe (pro Ausprägung von `Fach`) - ausgeben lassen; in diesem Fall vier Gruppen (Fach A bis D).


```r
test_gruppiert <- group_by(stats_test, interest)
test_gruppiert
#> Source: local data frame [306 x 6]
#> Groups: interest [7]
#> 
#>        X                 V_1 study_time self_eval interest score
#>    <int>              <fctr>      <int>     <int>    <int> <int>
#> 1      1 05.01.2017 13:57:01          5         8        5    29
#> 2      2 05.01.2017 21:07:56          3         7        3    29
#> 3      3 05.01.2017 23:33:47          5        10        6    40
#> 4      4 06.01.2017 09:58:05          2         3        2    18
#> 5      5 06.01.2017 14:13:08          4         8        6    34
#> 6      6 06.01.2017 14:21:18         NA        NA       NA    39
#> 7      7 06.01.2017 14:25:49         NA        NA       NA    40
#> 8      8 06.01.2017 17:24:53          2         5        3    24
#> 9      9 07.01.2017 10:11:17          2         3        5    25
#> 10    10 07.01.2017 18:10:05          4         5        5    33
#> # ... with 296 more rows
```
…
#> 5        5    45
#> 6        6     9
#> 7       NA    68
dplyr::count(stats_test, study_time)
#> # A tibble: 6 × 2
#>   study_time     n
#>        <int> <int>
#> 1          1    31
#> 2          2    49
#> 3          3    85
#> 4          4    56
#> 5          5    17
#> 6         NA    68
dplyr::count(stats_test, interest, study_time)
#> Source: local data frame [29 x 3]
#> Groups: interest [?]
#> 
#>    interest study_time     n
#>       <int>      <int> <int>
#> 1         1          1    12
#> 2         1          2     7
#> 3         1          3     8
#> 4         1          4     2
#> 5         1          5     1
#> 6         2          1     9
#> 7         2          2    15
#> 8         2          3    16
#> 9         2          4     6
#> 10        2          5     1
#> # ... with 19 more rows
```
…
