Praxis der Datenanalyse
…
Abbildung 3.4: Datensätze nach Subgruppen aufteilen

In der Abbildung wurde der Datensatz anhand der Spalte Fach in mehrere Gruppen geteilt. Wir könnten uns als nächstes z.B. Mittelwerte pro Fach - d.h. pro Gruppe (pro Ausprägung von Fach) - ausgeben lassen; in diesem Fall vier Gruppen (Fach A bis D).

test_gruppiert <- group_by(stats_test, interest)
test_gruppiert
#> Source: local data frame [306 x 6]
#> Groups: interest [7]
#> 
#>       X                 V_1 study_time self_eval interest score
#>   <int>              <fctr>      <int>     <int>    <int> <int>
#> 1     1 05.01.2017 13:57:01          5         8        5    29
#> 2     2 05.01.2017 21:07:56          3         7        3    29
#> 3     3 05.01.2017 23:33:47          5        10        6    40
#> # ... with 303 more rows
…
Abbildung 3.5: Spalten zu einer Zahl zusammenfassen

summarise(stats_test, mean(score))
#>   mean(score)
#> 1        31.1

Man könnte diesen Befehl so ins Deutsche übersetzen: Fasse aus Tabelle stats_test die Spalte score anhand des Mittelwerts zusammen. Nicht vergessen, wenn die Spalte score fehlende Werte hat, wird der Befehl mean standardmäßig dies mit NA quittieren.

Jetzt können wir auch die Gruppierung nutzen:

test_gruppiert <- group_by(stats_test, interest)
summarise(test_gruppiert, mean(score))
#> # A tibble: 7 × 2
#>   interest `mean(score)`
#>      <int>         <dbl>
#> 1        1          28.3
#> 2        2          29.7
#> 3        3          30.8
#> # ... with 4 more rows

Der Befehl summarise erkennt also, wenn eine (mit group_by) gruppierte Tabelle vorliegt. Jegliche Zusammenfassung, die wir anfordern, wird anhand der Gruppierungsinformation aufgeteilt werden. In dem Beispiel bekommen wir einen Mittelwert für jeden Wert von interest. Interessanterweise sehen wir, dass der Mittelwert tendenziell größer wird, je größer interest wird.

Alle diese dplyr-Befehle geben einen Dataframe zurück, was praktisch ist für weitere Verarbeitung. In diesem Fall heißen die Spalten interst und mean(score). Zweiter Name ist nicht so schön, daher ändern wir den wie folgt:

Jetzt können wir auch die Gruppierung nutzen:

test_gruppiert <- group_by(stats_test, interest)
summarise(test_gruppiert, mw_pro_gruppe = mean(score, na.rm = TRUE))
#> # A tibble: 7 × 2
#>   interest mw_pro_gruppe
#>      <int>         <dbl>
#> 1        1          28.3
#> 2        2          29.7
#> 3        3          30.8
#> # ... with 4 more rows
…
Grundsätzlich ist die Philosophie der dplyr-Befehle: “Mach nur eine Sache, aber die dafür gut”. Entsprechend kann summarise nur Spalten zusammenfassen, aber keine Zeilen.

Merke:

Mit summarise kann man eine Spalte eines Dataframes zu einem Wert zusammenfassen.

3.2.6 Zeilen zählen mit n und count

Ebenfalls nützlich ist es, Zeilen zu zählen. Im Gegensatz zum Standardbefehle nrow versteht der dyplr-Befehl nauch Gruppierungen. n darf nur innerhalb von summarise oder ähnlichen dplyr-Befehlen verwendet werden.

summarise(stats_test, n())
#>   n()
#> 1 306
summarise(test_gruppiert, n())
#> # A tibble: 7 × 2
#>   interest `n()`
#>      <int> <int>
#> 1        1    30
#> 2        2    47
#> 3        3    66
#> # ... with 4 more rows
nrow(stats_test)
#> [1] 306

Außerhalb von gruppierten Datensätzen ist nrow meist praktischer.

Praktischer ist der Befehl count, der nichts anderes ist als die Hintereinanderschaltung von group_by und n. Mit count zählen wir die Häufigkeiten nach Gruppen; Gruppen sind hier zumeist die Werte einer auszuzählenden Variablen (oder mehrerer auszuzählender Variablen). Das macht count zu einem wichtigen Helfer bei der Analyse von Häufigkeitsdaten.

dplyr::count(stats_test, interest)
#> # A tibble: 7 × 2
#>   interest     n
#>      <int> <int>
#> 1        1    30
#> 2        2    47
#> 3        3    66
#> # ... with 4 more rows
dplyr::count(stats_test, study_time)
#> # A tibble: 6 × 2
#>   study_time     n
#>        <int> <int>
#> 1          1    31
#> 2          2    49
#> 3          3    85
#> 4          4    56
#> 5          5    17
#> 6         NA    68
dplyr::count(stats_test, interest, study_time)
#> Source: local data frame [29 x 3]
#> Groups: interest [?]
#> 
#>   interest study_time     n
#>      <int>      <int> <int>
#> 1        1          1    12
#> 2        1          2     7
#> 3        1          3     8
#> # ... with 26 more rows
…
Der Befehle recode ist wirklich sehr prkatisch; mit : kann man “von bis” ansprechen (das ginge mit c() übrigens auch); else für “ansonsten” ist möglich und mit as.factor.result kann man entweder einen Faktor oder eine Text-Variable zurückgeliefert bekommen. Der ganze “Wechselterm” steht in Anführungsstrichen ("). Einzelne Teile des Wechselterms sind mit einem Strichpunkt (;) voneinander getrennt.

Das klassiche Umkodieren von Items aus Fragebögen kann man so anstellen; sagen wir interest soll umkodiert werden:

stats_test$no_interest <- car::recode(stats_test$interest, "1 = 6; 2 = 5; 3 = 4; 4 = 3; 5 = 2; 6 = 1; else = NA")
glimpse(stats_test$no_interest)
#>  num [1:306] 2 4 1 5 1 NA NA 4 2 2 ...

Bei dem Wechselterm muss man aufpassen, nichts zu verwechseln; die Zahlen sehen alle ähnlich aus…

Testen kann man den Erfolg des Umpolens mit

dplyr::count(stats_test, interest)
#> # A tibble: 7 × 2
#>   interest     n
#>      <int> <int>
#> 1        1    30
#> 2        2    47
#> 3        3    66
#> # ... with 4 more rows
dplyr::count(stats_test, no_interest)
#> # A tibble: 7 × 2
#>   no_interest     n
#>         <dbl> <int>
#> 1           1     9
#> 2           2    45
#> 3           3    41
#> # ... with 4 more rows
…
“Geht doch”, war die Antwort des Chefs, als sie die Tabelle rübergeben (er mag auch keine Emails). “Ach ja”, raunt der Chef, als Sie das Zimmer verlassen wollen, “hatte ich erwähnt, dass ich die gleiche Auswertung für jeden Carrier brauche? Reicht bis in einer halben Stunde”.

Wir gruppieren also den Datensatz nach der Fluggesellschaft (carrier) und filtern dann die ersten 3 Zeilen (damit die Tabelle für den Chef nicht zu groß wird). Wie jeder dplyr-Befehl wird die vorherige Gruppierung berücksichtigt und daher die Top-3-Zeilen pro Gruppe, d.h. pro Fluggesellschaft, ausgegeben.

flights %>% 
  arrange(-arr_delay) %>% 
  select(arr_delay, carrier, month, day, dep_time, tailnum, flight, dest) %>% 
  group_by(carrier) %>% 
  filter(row_number() < 4) 
#> Source: local data frame [48 x 8]
#> Groups: carrier [16]
#> 
#>   arr_delay carrier month   day dep_time tailnum flight  dest
#>       <dbl>   <chr> <int> <int>    <int>   <chr>  <int> <chr>
#> 1      1272      HA     1     9      641  N384HA     51   HNL
#> 2      1127      MQ     6    15     1432  N504MQ   3535   CMH
#> 3      1109      MQ     1    10     1121  N517MQ   3695   ORD
#> # ... with 45 more rows

Vielleicht gefällt dem Chef diese Darstellung (sortiert nach carrier) besser:

flights %>% 
  arrange(-arr_delay) %>% 
  select(arr_delay, carrier, month, day, dep_time, tailnum, flight, dest) %>% 
  group_by(carrier) %>% 
  filter(row_number() < 4) %>% 
  arrange(carrier)
#> Source: local data frame [48 x 8]
#> Groups: carrier [16]
#> 
#>   arr_delay carrier month   day dep_time tailnum flight  dest
#>       <dbl>   <chr> <int> <int>    <int>   <chr>  <int> <chr>
#> 1       744      9E     2    16      757  N8940E   3798   CLT
#> 2       458      9E     7    24     1525  N927XJ   3538   MSP
#> 3       421      9E     7    10     2054  N937XJ   3325   DFW
#> # ... with 45 more rows
…
