Statistik_21
…
3
Wir hatten uns das viel schöner gedacht.

4
Wir waren nur Konfirmanden.

Und “dehnen” diesen Dataframe zu einem tidy text Dataframe.

library(tidytext)

text_df %>% 
  unnest_tokens(wort, text)

## # A tibble: 24 × 2
##    Zeile     wort
##    <int>    <chr>
## 1      1      wir
## 2      1    haben
## 3      1      die
## 4      1   frauen
## 5      1       zu
## 6      1     bett
## 7      1 gebracht
## 8      2      als
## 9      2      die
## 10     2   männer
## # ... with 14 more rows

Das unnest_tokens kann übersetzt werden als “entschachtele” oder “dehne” die Tokens - so dass in jeder Zeile nur noch ein Wort (Token) steht. Die Syntax ist unnest_tokens(Ausgabespalte, Eingabespalte). Nebenbei werden übrigens alle Buchstaben auf Kleinschreibung getrimmt.

Als nächstes filtern wir die Satzzeichen heraus, da die Wörter für die Analyse wichtiger (oder zumindest einfacher) sind.

library(stringr)

text_df %>% 
  unnest_tokens(wort, text) %>% 
  filter(str_detect(wort, "[a-z]"))

## # A tibble: 24 × 2
##    Zeile     wort
##    <int>    <chr>
## 1      1      wir
## 2      1    haben
## 3      1      die
## 4      1   frauen
## 5      1       zu
## 6      1     bett
## 7      1 gebracht
## 8      2      als
## 9      2      die
## 10     2   männer
## # ... with 14 more rows
…
## # A tibble: 1 × 1
##       n
##   <int>
## 1 26396

Eine substanzielle Menge von Text. Was wohl die häufigsten Wörter sind?

11.1.4 Worthäufigkeiten auszählen

afd_df %>% 
  na.omit() %>%  # fehlende Werte löschen
  count(token, sort = TRUE)

## # A tibble: 7,087 × 2
##    token     n
##    <chr> <int>
## 1    die  1151
## 2    und  1147
## 3    der   870
## 4     zu   435
## 5    für   392
## 6     in   392
## 7    den   271
## 8    von   257
## 9    ist   251
## 10   das   225
## # ... with 7,077 more rows
…
