Praxis der Datenanalyse
…
2
als die Männer in Frankreich standen.

3
Wir hatten uns das viel schöner gedacht.

4
Wir waren nur Konfirmanden.

Und “dehnen” diesen Dataframe zu einem tidy text Dataframe.

text_df %>% 
  unnest_tokens(wort, text)
#> # A tibble: 24 × 2
#>   Zeile  wort
#>   <int> <chr>
#> 1     1   wir
#> 2     1 haben
#> 3     1   die
#> # ... with 21 more rows

Das unnest_tokens kann übersetzt werden als “entschachtele” oder “dehne” die Tokens - so dass in jeder Zeile nur noch ein Wort (genauer: Token) steht. Die Syntax ist unnest_tokens(Ausgabespalte, Eingabespalte). Nebenbei werden übrigens alle Buchstaben auf Kleinschreibung getrimmt.

Als nächstes filtern wir die Satzzeichen heraus, da die Wörter für die Analyse wichtiger (oder zumindest einfacher) sind.

text_df %>% 
  unnest_tokens(wort, text) %>% 
  filter(str_detect(wort, "[a-z]"))
#> # A tibble: 24 × 2
#>   Zeile  wort
#>   <int> <chr>
#> 1     1   wir
#> 2     1 haben
#> 3     1   die
#> # ... with 21 more rows
…
count(afd_df) 
#> # A tibble: 1 × 1
#>       n
#>   <int>
#> 1 26396

Eine substanzielle Menge von Text. Was wohl die häufigsten Wörter sind?

23.2.3 Worthäufigkeiten auszählen

afd_df %>% 
  na.omit() %>%  # fehlende Werte löschen
  count(token, sort = TRUE)
#> # A tibble: 7,087 × 2
#>   token     n
#>   <chr> <int>
#> 1   die  1151
#> 2   und  1147
#> 3   der   870
#> # ... with 7,084 more rows
…
